:net(error): Unable to open TCP connection to server [::1]:5185
:pstats(error): Couldn't connect to PStatServer at localhost:5185
:shader: Preprocessing shader file: /gdk/shader/shadow/multiViewShadows.vert
:pnmimage:png(warning): iCCP: known incorrect sRGB profile
:pnmimage:png(warning): bKGD: invalid
:shader: Preprocessing shader file: /gdk/shader/basic.vert
:shader: Preprocessing shader file: /gdk/shader/opaque.frag
:shader: Preprocessing shader file: /gdk/shader/reconstructNormal.comp
:shader: Preprocessing shader file: /gdk/shader/composeShading.comp
:shader: Preprocessing shader file: /gdk/shader/tonemap.comp
:shader: Preprocessing shader file: /gdk/shader/linearizeDepth.comp
:shader: Preprocessing shader file: /gdk/shader/downscaleDepth.comp
:shader: Preprocessing shader file: /gdk/shader/lightBinning.vert
:shader: Preprocessing shader file: /gdk/shader/lightBinning.frag
:shader: Preprocessing shader file: /gdk/shader/accumulateLighting.comp
:shader: Preprocessing shader file: /gdk/shader/clearLightVolume.comp
:shader: Preprocessing shader file: /gdk/shader/cullLights.comp
:shader: Preprocessing shader file: /data/shader/bulletHole.vert
:shader: Preprocessing shader file: /data/shader/bulletHole.frag
:shader: Preprocessing shader file: /gdk/shader/quad.vert
:shader: Preprocessing shader file: /gdk/shader/texture.frag
:shader: Preprocessing shader file: /gdk/shader/skinning.vert
:shader: Preprocessing shader file: /gdk/shader/opaque.frag
:shader: Preprocessing shader file: /data/shader/redDot.vert
:shader: Preprocessing shader file: /data/shader/redDot.frag
:audio(error): alListerfv(AL_VELOCITY): Invalid Value
:linmath(warning): Tried to invert singular LMatrix3.
